module gin-gonic-gorm

go 1.21.4

require (
	github.com/KyleBanks/depth v1.2.1 // indirect
	github.com/PuerkitoBio/purell v1.2.1 // indirect
	github.com/PuerkitoBio/urlesc v0.0.0-20170810143723-de5bf2ad4578 // indirect
	github.com/bytedance/sonic v1.10.2 // indirect
	github.com/chenzhuoyu/base64x v0.0.0-20230717121745-296ad89f973d // indirect
	github.com/chenzhuoyu/iasm v0.9.1 // indirect
	github.com/cpuguy83/go-md2man/v2 v2.0.3 // indirect
	github.com/gabriel-vasile/mimetype v1.4.3 // indirect
	github.com/gin-contrib/sse v0.1.0 // indirect
	github.com/gin-gonic/gin v1.9.1 // indirect
	github.com/go-openapi/jsonpointer v0.20.2 // indirect
	github.com/go-openapi/jsonreference v0.20.4 // indirect
	github.com/go-openapi/spec v0.20.13 // indirect
	github.com/go-openapi/swag v0.22.7 // indirect
	github.com/go-playground/locales v0.14.1 // indirect
	github.com/go-playground/universal-translator v0.18.1 // indirect
	github.com/go-playground/validator/v10 v10.16.0 // indirect
	github.com/go-sql-driver/mysql v1.7.1 // indirect
	github.com/goccy/go-json v0.10.2 // indirect
	github.com/golang-jwt/jwt/v5 v5.2.0 // indirect
	github.com/golang-migrate/migrate v3.5.4+incompatible // indirect
	github.com/golang-migrate/migrate/v4 v4.17.0 // indirect
	github.com/golang/protobuf v1.5.3 // indirect
	github.com/google/go-github/v39 v39.2.0 // indirect
	github.com/google/go-querystring v1.1.0 // indirect
	github.com/google/uuid v1.5.0 // indirect
	github.com/hashicorp/errwrap v1.1.0 // indirect
	github.com/hashicorp/go-multierror v1.1.1 // indirect
	github.com/jinzhu/inflection v1.0.0 // indirect
	github.com/jinzhu/now v1.1.5 // indirect
	github.com/joho/godotenv v1.5.1 // indirect
	github.com/josharian/intern v1.0.0 // indirect
	github.com/json-iterator/go v1.1.12 // indirect
	github.com/klauspost/cpuid/v2 v2.2.6 // indirect
	github.com/leodido/go-urn v1.2.4 // indirect
	github.com/mailru/easyjson v0.7.7 // indirect
	github.com/mattn/go-isatty v0.0.20 // indirect
	github.com/modern-go/concurrent v0.0.0-20180306012644-bacd9c7ef1dd // indirect
	github.com/modern-go/reflect2 v1.0.2 // indirect
	github.com/pelletier/go-toml/v2 v2.1.1 // indirect
	github.com/russross/blackfriday/v2 v2.1.0 // indirect
	github.com/shurcooL/sanitized_anchor_name v1.0.0 // indirect
	github.com/swaggo/files v1.0.1 // indirect
	github.com/swaggo/gin-swagger v1.6.0 // indirect
	github.com/swaggo/swag v1.16.2 // indirect
	github.com/twitchyliquid64/golang-asm v0.15.1 // indirect
	github.com/ugorji/go/codec v1.2.12 // indirect
	github.com/urfave/cli/v2 v2.27.1 // indirect
	github.com/xrash/smetrics v0.0.0-20231213231151-1d8dd44e695e // indirect
	go.uber.org/atomic v1.7.0 // indirect
	golang.org/x/arch v0.7.0 // indirect
	golang.org/x/crypto v0.17.0 // indirect
	golang.org/x/net v0.19.0 // indirect
	golang.org/x/oauth2 v0.14.0 // indirect
	golang.org/x/sys v0.16.0 // indirect
	golang.org/x/text v0.14.0 // indirect
	golang.org/x/tools v0.16.1 // indirect
	google.golang.org/appengine v1.6.7 // indirect
	google.golang.org/protobuf v1.32.0 // indirect
	gopkg.in/yaml.v2 v2.4.0 // indirect
	gopkg.in/yaml.v3 v3.0.1 // indirect
	gorm.io/driver/mysql v1.5.2 // indirect
	gorm.io/gorm v1.25.5 // indirect
	sigs.k8s.io/yaml v1.4.0 // indirect
)
